{
  "schemaVersion": 1,
  "id": "cobblemon_fabric_mdk",
  "version": "1.0.0",
  "name": "Cobblemon Fabric MDK",
  "description": "A MDK useful for Fabric Development",
  "authors": [
    "The Cobblemon Team"
  ],
  "license": "MPL-2.0",
  "environment": "*",
  "entrypoints": {
    "main": [
      "com.cobblemon.fabric.example.FabricModExample"
    ]
  },
  "depends": {
    "java": ">=17",
    "minecraft": ">=1.19.2",
    "fabricloader": ">=0.13.3",
    "fabric": ">=0.75.1",
    "architectury": ">=6.5.59",
    "cobblemon": ">=1.3.0"
  }
}